$challenge
# A tibble: 2,000 x 2
       x y         
   <dbl> <date>    
 1   404 NA        
 2  4172 NA        
 3  3004 NA        
 4   787 NA        
 5    37 NA        
 6  2332 NA        
 7  2489 NA        
 8  1449 NA        
 9  3665 NA        
10  3863 NA        
# ... with 1,990 more rows
…
